{"page":1,"limit":12,"sort":"default","total":16,"pages":2,"from":1,"to":12,"items":[{"id":1,"name":"Electric Planer Brandix KL370090G 300 Watts","sku":"83690/32","slug":"electric-planer-brandix-kl370090g-300-watts","price":749,"compareAtPrice":null,"images":["images/products/product-1.jpg","images/products/product-1-1.jpg"],"badges":["new"],"rating":4,"reviews":12,"availability":"in-stock","brand":{"name":"Brandix","slug":"brandix","image":"assets/images/logos/logo-1.png"},"categories":[],"attributes":[{"name":"Color","slug":"color","featured":false,"values":[{"name":"Yellow","slug":"yellow","customFields":{}}],"customFields":{}},{"name":"Speed","slug":"speed","featured":true,"values":[{"name":"750 RPM","slug":"750-rpm","customFields":{}}],"customFields":{}},{"name":"Power Source","slug":"power-source","featured":true,"values":[{"name":"Cordless-Electric","slug":"cordless-electric","customFields":{}}],"customFields":{}},{"name":"Battery Cell Type","slug":"battery-cell-type","featured":true,"values":[{"name":"Lithium","slug":"lithium","customFields":{}}],"customFields":{}},{"name":"Voltage","slug":"voltage","featured":true,"values":[{"name":"20 Volts","slug":"20-volts","customFields":{}}],"customFields":{}},{"name":"Battery Capacity","slug":"battery-capacity","featured":true,"values":[{"name":"2 Ah","slug":"2-Ah","customFields":{}}],"customFields":{}}],"customFields":{}},{"id":2,"name":"Undefined Tool IRadix DPS3000SY 2700 Watts","sku":"83690/32","slug":"undefined-tool-iradix-dps3000sy-2700-watts","price":1019,"compareAtPrice":null,"images":["images/products/product-2.jpg","images/products/product-2-1.jpg"],"badges":["hot"],"rating":5,"reviews":3,"availability":"in-stock","brand":{"name":"Zosch","slug":"zosch","image":"assets/images/logos/logo-3.png"},"categories":[],"attributes":[{"name":"Color","slug":"color","featured":false,"values":[{"name":"Silver","slug":"silver","customFields":{}},{"name":"Cerise","slug":"cerise","customFields":{}}],"customFields":{}},{"name":"Speed","slug":"speed","featured":true,"values":[{"name":"750 RPM","slug":"750-rpm","customFields":{}}],"customFields":{}},{"name":"Power Source","slug":"power-source","featured":true,"values":[{"name":"Cordless-Electric","slug":"cordless-electric","customFields":{}}],"customFields":{}},{"name":"Battery Cell Type","slug":"battery-cell-type","featured":true,"values":[{"name":"Lithium","slug":"lithium","customFields":{}}],"customFields":{}},{"name":"Voltage","slug":"voltage","featured":true,"values":[{"name":"20 Volts","slug":"20-volts","customFields":{}}],"customFields":{}},{"name":"Battery Capacity","slug":"battery-capacity","featured":true,"values":[{"name":"2 Ah","slug":"2-Ah","customFields":{}}],"customFields":{}}],"customFields":{}},{"id":3,"name":"Drill Screwdriver Brandix ALX7054 200 Watts","sku":"83690/32","slug":"drill-screwdriver-brandix-alx7054-200-watts","price":850,"compareAtPrice":null,"images":["images/products/product-3.jpg","images/products/product-3-1.jpg"],"badges":[],"rating":4,"reviews":8,"availability":"in-stock","brand":{"name":"Brandix","slug":"brandix","image":"assets/images/logos/logo-1.png"},"categories":[],"attributes":[{"name":"Color","slug":"color","featured":false,"values":[{"name":"Yellow","slug":"yellow","customFields":{}}],"customFields":{}},{"name":"Speed","slug":"speed","featured":true,"values":[{"name":"750 RPM","slug":"750-rpm","customFields":{}}],"customFields":{}},{"name":"Power Source","slug":"power-source","featured":true,"values":[{"name":"Cordless-Electric","slug":"cordless-electric","customFields":{}}],"customFields":{}},{"name":"Battery Cell Type","slug":"battery-cell-type","featured":true,"values":[{"name":"Lithium","slug":"lithium","customFields":{}}],"customFields":{}},{"name":"Voltage","slug":"voltage","featured":true,"values":[{"name":"20 Volts","slug":"20-volts","customFields":{}}],"customFields":{}},{"name":"Battery Capacity","slug":"battery-capacity","featured":true,"values":[{"name":"2 Ah","slug":"2-Ah","customFields":{}}],"customFields":{}}],"customFields":{}},{"id":4,"name":"Drill Series 3 Brandix KSR4590PQS 1500 Watts","sku":"83690/32","slug":"drill-series-3-brandix-ksr4590pqs-1500-watts","price":949,"compareAtPrice":1189,"images":["images/products/product-4.jpg","images/products/product-4-1.jpg"],"badges":["sale"],"rating":3,"reviews":15,"availability":"in-stock","brand":{"name":"Brandix","slug":"brandix","image":"assets/images/logos/logo-1.png"},"categories":[],"attributes":[{"name":"Color","slug":"color","featured":false,"values":[{"name":"White","slug":"white","customFields":{}}],"customFields":{}},{"name":"Speed","slug":"speed","featured":true,"values":[{"name":"750 RPM","slug":"750-rpm","customFields":{}}],"customFields":{}},{"name":"Power Source","slug":"power-source","featured":true,"values":[{"name":"Cordless-Electric","slug":"cordless-electric","customFields":{}}],"customFields":{}},{"name":"Battery Cell Type","slug":"battery-cell-type","featured":true,"values":[{"name":"Lithium","slug":"lithium","customFields":{}}],"customFields":{}},{"name":"Voltage","slug":"voltage","featured":true,"values":[{"name":"20 Volts","slug":"20-volts","customFields":{}}],"customFields":{}},{"name":"Battery Capacity","slug":"battery-capacity","featured":true,"values":[{"name":"2 Ah","slug":"2-Ah","customFields":{}}],"customFields":{}}],"customFields":{}},{"id":5,"name":"Brandix Router Power Tool 2017ERXPK","sku":"83690/32","slug":"brandix-router-power-tool-2017erxpk","price":1700,"compareAtPrice":null,"images":["images/products/product-5.jpg","images/products/product-5-1.jpg"],"badges":[],"rating":4,"reviews":2,"availability":"in-stock","brand":{"name":"Wakita","slug":"wakita","image":"assets/images/logos/logo-2.png"},"categories":[],"attributes":[{"name":"Color","slug":"color","featured":false,"values":[{"name":"Dark Blue","slug":"dark-blue","customFields":{}}],"customFields":{}},{"name":"Speed","slug":"speed","featured":true,"values":[{"name":"750 RPM","slug":"750-rpm","customFields":{}}],"customFields":{}},{"name":"Power Source","slug":"power-source","featured":true,"values":[{"name":"Cordless-Electric","slug":"cordless-electric","customFields":{}}],"customFields":{}},{"name":"Battery Cell Type","slug":"battery-cell-type","featured":true,"values":[{"name":"Lithium","slug":"lithium","customFields":{}}],"customFields":{}},{"name":"Voltage","slug":"voltage","featured":true,"values":[{"name":"20 Volts","slug":"20-volts","customFields":{}}],"customFields":{}},{"name":"Battery Capacity","slug":"battery-capacity","featured":true,"values":[{"name":"2 Ah","slug":"2-Ah","customFields":{}}],"customFields":{}}],"customFields":{}},{"id":6,"name":"Brandix Drilling Machine DM2019KW4 4kW","sku":"83690/32","slug":"brandix-drilling-machine-dm2019kw4-4kw","price":3199,"compareAtPrice":null,"images":["images/products/product-6.jpg","images/products/product-6-1.jpg"],"badges":[],"rating":3,"reviews":21,"availability":"in-stock","brand":{"name":"Wakita","slug":"wakita","image":"assets/images/logos/logo-2.png"},"categories":[],"attributes":[{"name":"Color","slug":"color","featured":false,"values":[{"name":"Orange","slug":"orange","customFields":{}}],"customFields":{}},{"name":"Speed","slug":"speed","featured":true,"values":[{"name":"750 RPM","slug":"750-rpm","customFields":{}}],"customFields":{}},{"name":"Power Source","slug":"power-source","featured":true,"values":[{"name":"Cordless-Electric","slug":"cordless-electric","customFields":{}}],"customFields":{}},{"name":"Battery Cell Type","slug":"battery-cell-type","featured":true,"values":[{"name":"Lithium","slug":"lithium","customFields":{}}],"customFields":{}},{"name":"Voltage","slug":"voltage","featured":true,"values":[{"name":"20 Volts","slug":"20-volts","customFields":{}}],"customFields":{}},{"name":"Battery Capacity","slug":"battery-capacity","featured":true,"values":[{"name":"2 Ah","slug":"2-Ah","customFields":{}}],"customFields":{}}],"customFields":{}},{"id":7,"name":"Brandix Pliers","sku":"83690/32","slug":"brandix-pliers","price":24,"compareAtPrice":null,"images":["images/products/product-7.jpg","images/products/product-7-1.jpg"],"badges":[],"rating":2,"reviews":1,"availability":"in-stock","brand":{"name":"WeVALT","slug":"wevalt","image":"assets/images/logos/logo-4.png"},"categories":[],"attributes":[{"name":"Color","slug":"color","featured":false,"values":[{"name":"Red","slug":"red","customFields":{}}],"customFields":{}},{"name":"Speed","slug":"speed","featured":true,"values":[{"name":"750 RPM","slug":"750-rpm","customFields":{}}],"customFields":{}},{"name":"Power Source","slug":"power-source","featured":true,"values":[{"name":"Cordless-Electric","slug":"cordless-electric","customFields":{}}],"customFields":{}},{"name":"Battery Cell Type","slug":"battery-cell-type","featured":true,"values":[{"name":"Lithium","slug":"lithium","customFields":{}}],"customFields":{}},{"name":"Voltage","slug":"voltage","featured":true,"values":[{"name":"20 Volts","slug":"20-volts","customFields":{}}],"customFields":{}},{"name":"Battery Capacity","slug":"battery-capacity","featured":true,"values":[{"name":"2 Ah","slug":"2-Ah","customFields":{}}],"customFields":{}}],"customFields":{}},{"id":8,"name":"Water Hose 40cm","sku":"83690/32","slug":"water-hose-40cm","price":15,"compareAtPrice":null,"images":["images/products/product-8.jpg","images/products/product-8-1.jpg"],"badges":[],"rating":2,"reviews":5,"availability":"in-stock","brand":{"name":"Hammer","slug":"hammer","image":"assets/images/logos/logo-5.png"},"categories":[],"attributes":[{"name":"Color","slug":"color","featured":false,"values":[{"name":"Pear Green","slug":"pear-green","customFields":{}},{"name":"Blue","slug":"blue","customFields":{}}],"customFields":{}},{"name":"Speed","slug":"speed","featured":true,"values":[{"name":"750 RPM","slug":"750-rpm","customFields":{}}],"customFields":{}},{"name":"Power Source","slug":"power-source","featured":true,"values":[{"name":"Cordless-Electric","slug":"cordless-electric","customFields":{}}],"customFields":{}},{"name":"Battery Cell Type","slug":"battery-cell-type","featured":true,"values":[{"name":"Lithium","slug":"lithium","customFields":{}}],"customFields":{}},{"name":"Voltage","slug":"voltage","featured":true,"values":[{"name":"20 Volts","slug":"20-volts","customFields":{}}],"customFields":{}},{"name":"Battery Capacity","slug":"battery-capacity","featured":true,"values":[{"name":"2 Ah","slug":"2-Ah","customFields":{}}],"customFields":{}}],"customFields":{}},{"id":9,"name":"Spanner Wrench","sku":"83690/32","slug":"spanner-wrench","price":19,"compareAtPrice":null,"images":["images/products/product-9.jpg","images/products/product-9-1.jpg"],"badges":[],"rating":4,"reviews":34,"availability":"in-stock","brand":{"name":"Hammer","slug":"hammer","image":"assets/images/logos/logo-5.png"},"categories":[],"attributes":[{"name":"Color","slug":"color","featured":false,"values":[{"name":"Green","slug":"green","customFields":{}}],"customFields":{}},{"name":"Speed","slug":"speed","featured":true,"values":[{"name":"750 RPM","slug":"750-rpm","customFields":{}}],"customFields":{}},{"name":"Power Source","slug":"power-source","featured":true,"values":[{"name":"Cordless-Electric","slug":"cordless-electric","customFields":{}}],"customFields":{}},{"name":"Battery Cell Type","slug":"battery-cell-type","featured":true,"values":[{"name":"Lithium","slug":"lithium","customFields":{}}],"customFields":{}},{"name":"Voltage","slug":"voltage","featured":true,"values":[{"name":"20 Volts","slug":"20-volts","customFields":{}}],"customFields":{}},{"name":"Battery Capacity","slug":"battery-capacity","featured":true,"values":[{"name":"2 Ah","slug":"2-Ah","customFields":{}}],"customFields":{}}],"customFields":{}},{"id":10,"name":"Water Tap","sku":"83690/32","slug":"water-tap","price":15,"compareAtPrice":null,"images":["images/products/product-10.jpg","images/products/product-10-1.jpg"],"badges":[],"rating":5,"reviews":3,"availability":"in-stock","brand":{"name":"Hammer","slug":"hammer","image":"assets/images/logos/logo-5.png"},"categories":[],"attributes":[{"name":"Color","slug":"color","featured":false,"values":[{"name":"Gray","slug":"gray","customFields":{}}],"customFields":{}},{"name":"Speed","slug":"speed","featured":true,"values":[{"name":"750 RPM","slug":"750-rpm","customFields":{}}],"customFields":{}},{"name":"Power Source","slug":"power-source","featured":true,"values":[{"name":"Cordless-Electric","slug":"cordless-electric","customFields":{}}],"customFields":{}},{"name":"Battery Cell Type","slug":"battery-cell-type","featured":true,"values":[{"name":"Lithium","slug":"lithium","customFields":{}}],"customFields":{}},{"name":"Voltage","slug":"voltage","featured":true,"values":[{"name":"20 Volts","slug":"20-volts","customFields":{}}],"customFields":{}},{"name":"Battery Capacity","slug":"battery-capacity","featured":true,"values":[{"name":"2 Ah","slug":"2-Ah","customFields":{}}],"customFields":{}}],"customFields":{}},{"id":11,"name":"Hand Tool Kit","sku":"83690/32","slug":"hand-tool-kit","price":149,"compareAtPrice":null,"images":["images/products/product-11.jpg","images/products/product-11-1.jpg"],"badges":[],"rating":4,"reviews":7,"availability":"in-stock","brand":{"name":"Hammer","slug":"hammer","image":"assets/images/logos/logo-5.png"},"categories":[],"attributes":[{"name":"Color","slug":"color","featured":false,"values":[{"name":"Black","slug":"black","customFields":{}}],"customFields":{}},{"name":"Speed","slug":"speed","featured":true,"values":[{"name":"750 RPM","slug":"750-rpm","customFields":{}}],"customFields":{}},{"name":"Power Source","slug":"power-source","featured":true,"values":[{"name":"Cordless-Electric","slug":"cordless-electric","customFields":{}}],"customFields":{}},{"name":"Battery Cell Type","slug":"battery-cell-type","featured":true,"values":[{"name":"Lithium","slug":"lithium","customFields":{}}],"customFields":{}},{"name":"Voltage","slug":"voltage","featured":true,"values":[{"name":"20 Volts","slug":"20-volts","customFields":{}}],"customFields":{}},{"name":"Battery Capacity","slug":"battery-capacity","featured":true,"values":[{"name":"2 Ah","slug":"2-Ah","customFields":{}}],"customFields":{}}],"customFields":{}},{"id":12,"name":"Ash's Chainsaw 3.5kW","sku":"83690/32","slug":"ash-s-chainsaw-3.5kw","price":666.99,"compareAtPrice":null,"images":["images/products/product-12.jpg","images/products/product-12-1.jpg"],"badges":[],"rating":5,"reviews":17,"availability":"in-stock","brand":{"name":"Mitasia","slug":"mitasia","image":"assets/images/logos/logo-6.png"},"categories":[],"attributes":[{"name":"Color","slug":"color","featured":false,"values":[{"name":"Violet","slug":"violet","customFields":{}}],"customFields":{}},{"name":"Speed","slug":"speed","featured":true,"values":[{"name":"750 RPM","slug":"750-rpm","customFields":{}}],"customFields":{}},{"name":"Power Source","slug":"power-source","featured":true,"values":[{"name":"Cordless-Electric","slug":"cordless-electric","customFields":{}}],"customFields":{}},{"name":"Battery Cell Type","slug":"battery-cell-type","featured":true,"values":[{"name":"Lithium","slug":"lithium","customFields":{}}],"customFields":{}},{"name":"Voltage","slug":"voltage","featured":true,"values":[{"name":"20 Volts","slug":"20-volts","customFields":{}}],"customFields":{}},{"name":"Battery Capacity","slug":"battery-capacity","featured":true,"values":[{"name":"2 Ah","slug":"2-Ah","customFields":{}}],"customFields":{}}],"customFields":{}}],"filters":[{"type":"category","slug":"category","name":"Categories","items":[{"id":1,"name":"Instruments","slug":"instruments","image":null,"items":272,"customFields":{},"parent":null},{"id":40,"name":"Electronics","slug":"electronics","image":null,"items":54,"customFields":{},"parent":null},{"id":41,"name":"Computers","slug":"computers","image":null,"items":421,"customFields":{},"parent":null},{"id":42,"name":"Automotive","slug":"automotive","image":null,"items":182,"customFields":{},"parent":null},{"id":43,"name":"Furniture & Appliances","slug":"furniture-appliances","image":null,"items":15,"customFields":{},"parent":null},{"id":44,"name":"Music & Books","slug":"music-books","image":null,"items":89,"customFields":{},"parent":null},{"id":45,"name":"Health & Beauty","slug":"health-beauty","image":null,"items":201,"customFields":{},"parent":null}],"value":null},{"type":"range","slug":"price","name":"Price","min":0,"max":3200,"value":[0,3200]},{"type":"check","slug":"brand","name":"Brand","items":[{"slug":"brandix","name":"Brandix","count":5},{"slug":"zosch","name":"Zosch","count":1},{"slug":"wakita","name":"Wakita","count":2},{"slug":"wevalt","name":"WeVALT","count":1},{"slug":"hammer","name":"Hammer","count":4},{"slug":"mitasia","name":"Mitasia","count":2},{"slug":"metaggo","name":"Metaggo","count":1}],"value":[]},{"type":"radio","slug":"discount","name":"Discount","items":[{"slug":"any","name":"Any","count":16},{"slug":"no","name":"No","count":15},{"slug":"yes","name":"Yes","count":1}],"value":"any"},{"type":"color","slug":"color","name":"Color","items":[{"slug":"white","name":"White","color":"#fff","count":1},{"slug":"silver","name":"Silver","color":"#d9d9d9","count":1},{"slug":"light-gray","name":"Light Gray","color":"#b3b3b3","count":1},{"slug":"gray","name":"Gray","color":"#808080","count":1},{"slug":"dark-gray","name":"Dark Gray","color":"#666","count":1},{"slug":"coal","name":"Coal","color":"#4d4d4d","count":1},{"slug":"black","name":"Black","color":"#262626","count":1},{"slug":"red","name":"Red","color":"#ff4040","count":1},{"slug":"orange","name":"Orange","color":"#ff8126","count":1},{"slug":"yellow","name":"Yellow","color":"#ffd333","count":2},{"slug":"pear-green","name":"Pear Green","color":"#becc1f","count":1},{"slug":"green","name":"Green","color":"#8fcc14","count":1},{"slug":"emerald","name":"Emerald","color":"#47cc5e","count":1},{"slug":"shamrock","name":"Shamrock","color":"#47cca0","count":1},{"slug":"shakespeare","name":"Shakespeare","color":"#47cccc","count":1},{"slug":"blue","name":"Blue","color":"#40bfff","count":1},{"slug":"dark-blue","name":"Dark Blue","color":"#3d6dcc","count":1},{"slug":"violet","name":"Violet","color":"#7766cc","count":1},{"slug":"purple","name":"Purple","color":"#b852cc","count":1},{"slug":"cerise","name":"Cerise","color":"#e53981","count":1}],"value":[]}]}